feedback_gos,trial_gos,trial_rest_gos
21.2724359817,0.0,20.0
54.2621899129,30.0,50.0
80.6659791489,60.0,80.0
114.218336944,90.0,110.0
141.83992105,120.0,140.0
172.634008389,150.0,170.0
200.50267634,180.0,200.0
231.844556144,210.0,230.0
262.745798803,240.0,260.0
290.720814452,270.0,290.0
320.679012396,300.0,320.0
352.151757957,330.0,350.0
381.097545065,360.0,380.0
411.154864566,390.0,410.0
442.420915709,420.0,440.0
472.292011683,450.0,470.0
500.827198666,480.0,500.0
531.012808386,510.0,530.0
560.842835011,540.0,560.0
594.108574373,570.0,590.0
