feedback_gos,trial_gos,trial_rest_gos
20.9098533996,0.0,20.0
54.2975594511,30.0,50.0
83.2642315068,60.0,80.0
111.34519604,90.0,110.0
142.430361262,120.0,140.0
173.503182062,150.0,170.0
200.534889369,180.0,200.0
232.301579398,210.0,230.0
260.807951771,240.0,260.0
291.599012943,270.0,290.0
321.733906007,300.0,320.0
352.567960351,330.0,350.0
382.311893518,360.0,380.0
411.906308209,390.0,410.0
441.320008728,420.0,440.0
473.543022886,450.0,470.0
502.997783961,480.0,500.0
530.521299937,510.0,530.0
563.198355687,540.0,560.0
590.936891749,570.0,590.0
